module gitlab.com/rteja-library3/rapperror

go 1.17

require (
	github.com/VividCortex/mysqlerr v1.0.0
	github.com/go-sql-driver/mysql v1.6.0
	github.com/lib/pq v1.10.4
	github.com/stretchr/testify v1.6.1
	go.mongodb.org/mongo-driver v1.8.3
)

require (
	github.com/davecgh/go-spew v1.1.1 // indirect
	github.com/go-stack/stack v1.8.0 // indirect
	github.com/golang/snappy v0.0.1 // indirect
	github.com/klauspost/compress v1.13.6 // indirect
	github.com/pkg/errors v0.9.1 // indirect
	github.com/pmezard/go-difflib v1.0.0 // indirect
	github.com/xdg-go/pbkdf2 v1.0.0 // indirect
	github.com/xdg-go/scram v1.0.2 // indirect
	github.com/xdg-go/stringprep v1.0.2 // indirect
	github.com/youmark/pkcs8 v0.0.0-20181117223130-1be2e3e5546d // indirect
	golang.org/x/crypto v0.0.0-20201216223049-8b5274cf687f // indirect
	golang.org/x/sync v0.0.0-20190911185100-cd5d95a43a6e // indirect
	golang.org/x/text v0.3.5 // indirect
	gopkg.in/yaml.v3 v3.0.0-20200313102051-9f266ea9e77c // indirect
)
